893.5141225961538,48.68869928213267,187.17679573939395,280.63937654862036,0.6119069947042846,person
1233.6580247145432,65.87261548409096,232.09848238871646,241.85982736257407,0.609727238114516,person
452.92725783128003,56.44587553464449,200.97553748350876,263.6734038591385,0.6010230176952263,person
1146.7395489032451,-34.19439169076773,298.6046989147479,489.37618594903216,0.3846946119802883,person
1360.5912428635816,-34.936082729926476,600.0755596160889,512.7380777093081,0.7131233610753434,car