{
    "seg_id": 1,
    "seg_length": 28,
    "seg_length_us": 28376922,
    "seg_calibrating": false,
    "seg_calibrated": false,
    "seg_t_start": "2019-11-13T15:14:28+0000",
    "seg_t_stop": "2019-11-13T15:14:56+0000",
    "seg_created": "2019-11-13T15:14:28+0000",
    "seg_end_reason": "api",
    "seg_eyesstream": false
}
